…
1. How is life expectancy changing over time on different continents?
---------------------------------------------------------------------

#### Using the mean and median to compare life expectancy

``` r
lifetime <- gapminder %>% 
  group_by(continent, year) %>% 
  summarize(mnlife = mean(lifeExp), mdlife = median(lifeExp))

lifetime
```

    ## # A tibble: 60 x 4
    ## # Groups:   continent [?]
    ##    continent  year mnlife mdlife
    ##    <fct>     <int>  <dbl>  <dbl>
    ##  1 Africa     1952   39.1   38.8
    ##  2 Africa     1957   41.3   40.6
    ##  3 Africa     1962   43.3   42.6
    ##  4 Africa     1967   45.3   44.7
    ##  5 Africa     1972   47.5   47.0
    ##  6 Africa     1977   49.6   49.3
    ##  7 Africa     1982   51.6   50.8
    ##  8 Africa     1987   53.3   51.6
    ##  9 Africa     1992   53.6   52.4
    ## 10 Africa     1997   53.6   52.8
    ## # ... with 50 more rows
…
#### Simultaneous GDP per capita increase and life expectancy decrease

To look at GDP and life expectancy changes, we need to calculate the rate of change in life expectancy and GDP per capita between observations for each country.

``` r
change <- gapminder %>% 
  group_by(country) %>% 
  mutate(gdpchange = gdpPercap - lag(gdpPercap)) %>% 
  mutate(lifechange = lifeExp - lag(lifeExp)) %>% 
  transmute(gdpchange, lifechange, year, continent)

change
```

    ## # A tibble: 1,704 x 5
    ## # Groups:   country [142]
    ##    country     gdpchange lifechange  year continent
    ##    <fct>           <dbl>      <dbl> <int> <fct>    
    ##  1 Afghanistan      NA      NA       1952 Asia     
    ##  2 Afghanistan      41.4     1.53    1957 Asia     
    ##  3 Afghanistan      32.2     1.66    1962 Asia     
    ##  4 Afghanistan     -16.9     2.02    1967 Asia     
    ##  5 Afghanistan     -96.2     2.07    1972 Asia     
    ##  6 Afghanistan      46.1     2.35    1977 Asia     
    ##  7 Afghanistan     192.      1.42    1982 Asia     
    ##  8 Afghanistan    -126.      0.968   1987 Asia     
    ##  9 Afghanistan    -203.      0.852   1992 Asia     
    ## 10 Afghanistan     -14.0     0.0890  1997 Asia     
    ## # ... with 1,694 more rows

Next, select observations where GDP remained the same or increased, and life expectancy decreased.

``` r
diffchange <- change %>% 
  filter(gdpchange >= 0, lifechange < 0)

diffchange
```

    ## # A tibble: 54 x 5
    ## # Groups:   country [40]
    ##    country       gdpchange lifechange  year continent
    ##    <fct>             <dbl>      <dbl> <int> <fct>    
    ##  1 Benin            140.       -0.371  2002 Africa   
    ##  2 Botswana        1748.       -0.877  1992 Africa   
    ##  3 Botswana         693.      -10.2    1997 Africa   
    ##  4 Botswana        2356.       -5.92   2002 Africa   
    ##  5 Bulgaria        1015.       -0.09   1977 Europe   
    ##  6 Burundi            9.88     -3.48   1992 Africa   
    ##  7 Cambodia         103.       -9.10   1977 Asia     
    ##  8 Cameroon         240.       -2.34   2002 Africa   
    ##  9 Chad             151.       -1.05   2002 Africa   
    ## 10 Cote d'Ivoire    138.       -4.05   1997 Africa   
    ## # ... with 44 more rows
…
Now, let's see if population growth and life expectancy sometimes change in opposite directions.

``` r
popup <-gapminder %>% 
  group_by(country) %>% 
  mutate(popchange = pop - lag(pop)) %>% 
  mutate(lifechange = lifeExp - lag(lifeExp)) %>% 
  filter(popchange >= 0, lifechange < 0) %>% 
  transmute(popchange, lifechange, year, continent)

popup
```

    ## # A tibble: 92 x 5
    ## # Groups:   country [49]
    ##    country  popchange lifechange  year continent
    ##    <fct>        <int>      <dbl> <int> <fct>    
    ##  1 Albania     251177     -0.419  1992 Europe   
    ##  2 Angola      857846     -0.036  1987 Africa   
    ##  3 Benin       960033     -0.371  2002 Africa   
    ##  4 Botswana    191430     -0.877  1992 Africa   
    ##  5 Botswana    193922    -10.2    1997 Africa   
    ##  6 Botswana     93811     -5.92   2002 Africa   
    ##  7 Bulgaria    220822     -0.09   1977 Europe   
    ##  8 Burundi     683213     -3.48   1992 Africa   
    ##  9 Cambodia    490539     -5.10   1972 Asia     
    ## 10 Cameroon   1686504     -0.671  1992 Africa   
    ## # ... with 82 more rows
…
Now, let's check the opposite-- do life expectancy increases ever coincide with population decreases?

``` r
popdown <- gapminder %>% 
  group_by(country) %>% 
  mutate(popchange = pop - lag(pop)) %>% 
  mutate(lifechange = lifeExp - lag(lifeExp)) %>% 
  filter(popchange < 0, lifechange >= 0) %>% 
  transmute(popchange, lifechange, year, continent)

popdown
```

    ## # A tibble: 36 x 5
    ## # Groups:   country [22]
    ##    country                popchange lifechange  year continent
    ##    <fct>                      <int>      <dbl> <int> <fct>    
    ##  1 Afghanistan             -1998556      1.42   1982 Asia     
    ##  2 Bosnia and Herzegovina    -82964      1.04   1992 Europe   
    ##  3 Bosnia and Herzegovina   -649013      1.07   1997 Europe   
    ##  4 Bulgaria                 -404258      1.82   2002 Europe   
    ##  5 Bulgaria                 -338941      0.865  2007 Europe   
    ##  6 Croatia                   -49418      1.15   1997 Europe   
    ##  7 Czech Republic            -14995      1.61   1997 Europe   
    ##  8 Czech Republic            -44412      1.5    2002 Europe   
    ##  9 Czech Republic            -27551      0.976  2007 Europe   
    ## 10 Equatorial Guinea         -84928      1.51   1977 Africa   
    ## # ... with 26 more rows
…
Yes, even without mapping there is a clear spatial pattern-- the vast majority of observations where population decreases as life expectancy increases are in Europe. Ideally, we would look at the relative frequency of each continent in the dataset to see if there is truly a disproportionate number of observations. However, we know that Europe does not have significantly more countries than all the other continents, so even without a statistical comparison it's pretty clear there is a spatial dimension.

Let's see if there's a temporal pattern as well.

``` r
popdown %>% 
  count(year) %>% 
  arrange(year)
```

    ## # A tibble: 36 x 3
    ## # Groups:   country [22]
    ##    country             year     n
    ##    <fct>              <int> <int>
    ##  1 Ireland             1957     1
    ##  2 Ireland             1962     1
    ##  3 Guinea-Bissau       1967     1
    ##  4 Portugal            1972     1
    ##  5 West Bank and Gaza  1972     1
    ##  6 Equatorial Guinea   1977     1
    ##  7 Germany             1977     1
    ##  8 Switzerland         1977     1
    ##  9 Afghanistan         1982     1
    ## 10 Lebanon             1982     1
    ## # ... with 26 more rows
…
